G04 Generated by Ultiboard 14.2 *
%FSLAX24Y24*%
%MOIN*%

%ADD10C,0.0001*%
%ADD11C,0.0001*%
%ADD12C,0.0050*%


G04 ColorRGB 00FFFF for the following layer *
%LNBoard Outline*%
%LPD*%
G54D10*
G54D11*
X0Y0D02*
X35500Y0D01*
X35500Y23102D01*
X0Y23102D01*
X0Y0D01*
G54D12*
X-100Y-100D02*
X-100Y2230D01*
X-100Y-100D02*
X3470Y-100D01*
X35600Y-100D02*
X32030Y-100D01*
X35600Y-100D02*
X35600Y2230D01*
X35600Y23202D02*
X35600Y20872D01*
X35600Y23202D02*
X32030Y23202D01*
X-100Y23202D02*
X3470Y23202D01*
X-100Y23202D02*
X-100Y20872D01*
X-2069Y-100D02*
X-6006Y-100D01*
X-4037Y-2069D02*
X-4037Y1869D01*
X-5513Y-100D02*
G75*
D01*
G02X-5513Y-100I1476J0*
G01*
X37569Y-100D02*
X41506Y-100D01*
X39537Y-2069D02*
X39537Y1869D01*
X38061Y-100D02*
G75*
D01*
G02X38061Y-100I1476J0*
G01*
X39045Y-100D02*
G75*
D01*
G02X39045Y-100I492J0*
G01*
X-2069Y23202D02*
X-6006Y23202D01*
X-4037Y21234D02*
X-4037Y25171D01*
X-5513Y23202D02*
G75*
D01*
G02X-5513Y23202I1476J0*
G01*
X-5021Y23202D02*
G75*
D01*
G02X-5021Y23202I984J0*
G01*
X-4529Y23202D02*
G75*
D01*
G02X-4529Y23202I492J0*
G01*

M02*
