Message[302] D:\TRABAJO\TREN\TEMPO-PROJECTS\RPICD\RPIC\SW\MINIBOOSTER\MINIBOOSTERASM.X\MB.ASM 362 : Register in operand not in bank 0.  Ensure that bank bits are correct.
Message[302] D:\TRABAJO\TREN\TEMPO-PROJECTS\RPICD\RPIC\SW\MINIBOOSTER\MINIBOOSTERASM.X\MB.ASM 371 : Register in operand not in bank 0.  Ensure that bank bits are correct.
Message[302] D:\TRABAJO\TREN\TEMPO-PROJECTS\RPICD\RPIC\SW\MINIBOOSTER\MINIBOOSTERASM.X\MB.ASM 373 : Register in operand not in bank 0.  Ensure that bank bits are correct.
Message[302] D:\TRABAJO\TREN\TEMPO-PROJECTS\RPICD\RPIC\SW\MINIBOOSTER\MINIBOOSTERASM.X\MB.ASM 374 : Register in operand not in bank 0.  Ensure that bank bits are correct.
Message[302] D:\TRABAJO\TREN\TEMPO-PROJECTS\RPICD\RPIC\SW\MINIBOOSTER\MINIBOOSTERASM.X\MB.ASM 376 : Register in operand not in bank 0.  Ensure that bank bits are correct.
Message[302] D:\TRABAJO\TREN\TEMPO-PROJECTS\RPICD\RPIC\SW\MINIBOOSTER\MINIBOOSTERASM.X\MB.ASM 438 : Register in operand not in bank 0.  Ensure that bank bits are correct.
Message[302] D:\TRABAJO\TREN\TEMPO-PROJECTS\RPICD\RPIC\SW\MINIBOOSTER\MINIBOOSTERASM.X\MB.ASM 458 : Register in operand not in bank 0.  Ensure that bank bits are correct.
